^C:\USERS\USER\DOCUMENTS\VISUAL STUDIO 2013\PROJECTS\WINDOWS_SHELL\WINDOWS_SHELL\HELPER.CPP|C:\USERS\USER\DOCUMENTS\VISUAL STUDIO 2013\PROJECTS\WINDOWS_SHELL\WINDOWS_SHELL\WINDOWS_SHELL.CPP
C:\USERS\USER\DOCUMENTS\VISUAL STUDIO 2013\PROJECTS\WINDOWS_SHELL\WINDOWS_SHELL\DEBUG\VC120.PDB
C:\USERS\USER\DOCUMENTS\VISUAL STUDIO 2013\PROJECTS\WINDOWS_SHELL\WINDOWS_SHELL\DEBUG\VC120.IDB
C:\USERS\USER\DOCUMENTS\VISUAL STUDIO 2013\PROJECTS\WINDOWS_SHELL\WINDOWS_SHELL\DEBUG\HELPER.OBJ
^C:\USERS\USER\DOCUMENTS\VISUAL STUDIO 2013\PROJECTS\WINDOWS_SHELL\WINDOWS_SHELL\HELPER.CPP
C:\USERS\USER\DOCUMENTS\VISUAL STUDIO 2013\PROJECTS\WINDOWS_SHELL\WINDOWS_SHELL\DEBUG\VC120.PDB
^C:\USERS\USER\DOCUMENTS\VISUAL STUDIO 2013\PROJECTS\WINDOWS_SHELL\WINDOWS_SHELL\WINDOWS_SHELL.CPP
C:\USERS\USER\DOCUMENTS\VISUAL STUDIO 2013\PROJECTS\WINDOWS_SHELL\WINDOWS_SHELL\DEBUG\VC120.PDB
C:\USERS\USER\DOCUMENTS\VISUAL STUDIO 2013\PROJECTS\WINDOWS_SHELL\WINDOWS_SHELL\DEBUG\VC120.IDB
C:\USERS\USER\DOCUMENTS\VISUAL STUDIO 2013\PROJECTS\WINDOWS_SHELL\WINDOWS_SHELL\DEBUG\WINDOWS_SHELL.OBJ
